\relax 
\providecommand*\new@tpo@label[2]{}
\@writefile{lol}{\contentsline {lstlisting}{\numberline {1}\texttt  {Brute force $O(n^2)$}}{3}}
\@writefile{lol}{\contentsline {lstlisting}{\numberline {2}\texttt  {Divide and conquer $O(n\qopname  \relax o{lg}n)$}}{3}}
\@writefile{lol}{\contentsline {lstlisting}{\numberline {3}\texttt  {Kadane's algorithm $O(n)$}}{4}}
\@writefile{lol}{\contentsline {lstlisting}{\numberline {4}\texttt  {Cashier's Algorithm at $O(k^n)$}}{4}}
\@writefile{lol}{\contentsline {lstlisting}{\numberline {5}\texttt  {Code Changing by DP $O(Nk)$}}{6}}
