\relax 
\@writefile{lof}{\contentsline {figure}{\numberline {1}{\ignorespaces Data Compression Algorithm}}{1}}
\newlabel{f:compression}{{1}{1}}
\newlabel{cref@f:compression}{{[figure][1][]1}{1}}
\@writefile{lof}{\contentsline {figure}{\numberline {2}{\ignorespaces Data Compression Methods}}{1}}
\newlabel{f:lossless}{{2}{1}}
\newlabel{cref@f:lossless}{{[figure][2][]2}{1}}
\citation{ref1}
\citation{ref2}
\citation{ch27}
\citation{ch27}
\citation{ch27}
\citation{ch27}
\@writefile{lot}{\contentsline {table}{\numberline {I}{\ignorespaces Terms used in the LZW implementation}}{3}}
\newlabel{t:terms}{{I}{3}}
\newlabel{cref@t:terms}{{[table][1][]I}{3}}
\@writefile{lof}{\contentsline {figure}{\numberline {3}{\ignorespaces Flowchart of LZW \textbf  {Compression} from \cite  {ch27} and our implementation in Python3}}{4}}
\newlabel{f:lzwEncode}{{3}{4}}
\newlabel{cref@f:lzwEncode}{{[figure][3][]3}{4}}
\@writefile{lof}{\contentsline {figure}{\numberline {4}{\ignorespaces Flowchart of LZW \textbf  {Decompression} from \cite  {ch27} and our implementation in Python3}}{4}}
\newlabel{f:lzwDecode}{{4}{4}}
\newlabel{cref@f:lzwDecode}{{[figure][4][]4}{4}}
\citation{gif,gif2}
\citation{gitlab}
\citation{gitlab}
\citation{sayood}
\@writefile{lof}{\contentsline {figure}{\numberline {5}{\ignorespaces Code Snippet for GIF-compression the 3rd step converting code stream (which is obtained by LZW compression) to hexadecimal string}}{5}}
\newlabel{f:codeGIF}{{5}{5}}
\newlabel{cref@f:codeGIF}{{[figure][5][]5}{5}}
\@writefile{lof}{\contentsline {figure}{\numberline {6}{\ignorespaces LZW Compression result including intermediate dictionary generation (Input, Output, Final Dictionary and Compression Percentage)}}{5}}
\newlabel{f:lzwCompSimple}{{6}{5}}
\newlabel{cref@f:lzwCompSimple}{{[figure][6][]6}{5}}
\citation{corpus,dickes}
\@writefile{lof}{\contentsline {figure}{\numberline {7}{\ignorespaces LZW Decompression Result including intermediate dictionary generation (Input, Output, Final Dictionary and Verification)}}{6}}
\newlabel{f:lzwDecompSimple}{{7}{6}}
\newlabel{cref@f:lzwDecompSimple}{{[figure][7][]7}{6}}
\@writefile{lof}{\contentsline {figure}{\numberline {8}{\ignorespaces LZW Compression/Decompression Result for Corpus.dos large text data}}{6}}
\newlabel{f:lzwlarge}{{8}{6}}
\newlabel{cref@f:lzwlarge}{{[figure][8][]8}{6}}
\@writefile{lof}{\contentsline {figure}{\numberline {9}{\ignorespaces GIF Image (a), GIF index mode data highlighted in yellow; GIF image data highlighted in sky-blue in hexadecimal form (b)}}{6}}
\newlabel{f:gif}{{9}{6}}
\newlabel{cref@f:gif}{{[figure][9][]9}{6}}
\bibcite{sayood}{1}
\bibcite{gif}{2}
\bibcite{gif2}{3}
\bibcite{ref1}{4}
\bibcite{ref2}{5}
\bibcite{ch27}{6}
\bibcite{corpus}{7}
\bibcite{dickes}{8}
\bibcite{gitlab}{9}
\@writefile{lot}{\contentsline {table}{\numberline {II}{\ignorespaces Compression/Decompression Experiments}}{8}}
\newlabel{t:exp}{{II}{8}}
\newlabel{cref@t:exp}{{[table][2][]II}{8}}
\@writefile{lof}{\contentsline {figure}{\numberline {10}{\ignorespaces LZW Compression Code Archive}}{8}}
\newlabel{f:codeAll}{{10}{8}}
\newlabel{cref@f:codeAll}{{[figure][10][]10}{8}}
\@writefile{toc}{\contentsline {section}{\relax \fontsize  {14}{17pt}\selectfont  References}{8}}
