\relax 
\providecommand*\new@tpo@label[2]{}
\@writefile{lol}{\contentsline {lstlisting}{\numberline {1}\texttt  {medianMode.py}}{1}}
\@writefile{lol}{\contentsline {lstlisting}{\numberline {2}\texttt  {whereIsZero.py}}{2}}
\@writefile{lol}{\contentsline {lstlisting}{\numberline {3}\texttt  {BFS.py}}{3}}
\@writefile{lol}{\contentsline {lstlisting}{\numberline {4}\texttt  {DFS.py}}{5}}
\@writefile{lol}{\contentsline {lstlisting}{\numberline {5}\texttt  {BFSshortestPath.py}}{6}}
\@writefile{lol}{\contentsline {lstlisting}{\numberline {6}\texttt  {DFStopologicalSort.py}}{7}}
\@writefile{lol}{\contentsline {lstlisting}{\numberline {7}\texttt  {TopologySort.py}}{8}}
\@writefile{lol}{\contentsline {lstlisting}{\numberline {8}\texttt  {dirMultiG2undirSimpleG.py}}{12}}
\@writefile{lol}{\contentsline {lstlisting}{\numberline {9}\texttt  {BSFlombardi.py}}{14}}
