\relax 
\@writefile{lof}{\contentsline {figure}{\numberline {1}{\ignorespaces Data Compression Algorithm}}{1}}
\newlabel{f:compression}{{1}{1}}
\newlabel{cref@f:compression}{{[figure][1][]1}{1}}
\@writefile{lof}{\contentsline {figure}{\numberline {2}{\ignorespaces Data Compression Methods}}{1}}
\newlabel{f:lossless}{{2}{1}}
\newlabel{cref@f:lossless}{{[figure][2][]2}{1}}
\citation{Dcoder}
\citation{sayood}
\citation{lzwpy}
\citation{lzw1,lzw2}
\citation{lzw1,lzw2}
\citation{gif}
\citation{PIL}
\bibcite{sayood}{1}
\bibcite{lzwpy}{2}
\bibcite{lzw1}{3}
\bibcite{lzw2}{4}
\bibcite{gif}{5}
\bibcite{PIL}{6}
\bibcite{Dcoder}{7}
\bibcite{tiff}{8}
\@writefile{lof}{\contentsline {figure}{\numberline {3}{\ignorespaces Pseudo-code of LZW Compression (a) and LZW Decompression (b) taken from \cite  {lzw1,lzw2}}}{2}}
\newlabel{f:lzw-code}{{3}{2}}
\newlabel{cref@f:lzw-code}{{[figure][3][]3}{2}}
\@writefile{toc}{\contentsline {section}{\relax \fontsize  {14}{17pt}\selectfont  References}{2}}
\@writefile{lot}{\contentsline {table}{\numberline {I}{\ignorespaces Time Schedule on the Compression Project}}{3}}
\newlabel{t:schedule}{{I}{3}}
\newlabel{cref@t:schedule}{{[table][1][]I}{3}}
\@writefile{lof}{\contentsline {figure}{\numberline {4}{\ignorespaces Data Compression Hierarchy}}{3}}
\newlabel{f:hierarchy}{{4}{3}}
\newlabel{cref@f:hierarchy}{{[figure][4][]4}{3}}
